<svg xmlns="http://www.w3.org/2000/svg" 
	width="150" height="100" viewBox="0 0 150 100">
  <rect stroke="black" id="svg_1" height="80" width="148" y="17.5" x="1" fill="none"/>
  <rect stroke="black" id="svg_3" height="16" width="67" y="1" x="1" fill="none"/>
</svg>