<?xml version="1.0" standalone="no" ?>

<svg contentScriptType="text/ecmascript" contentStyleType="text/css" height="1080.0px" preserveAspectRatio="xMidYMid meet" version="1.0" width="1600.0px" xmlns="http://www.w3.org/2000/svg" xmlns:xlink="http://www.w3.org/1999/xlink" zoomAndPan="magnify">
  <rect fill="#000000" height="50" stroke="#000000" stroke-dasharray="none" stroke-width="1" width="68" x="36.0" y="38.0"></rect>
  <rect fill="#000000" height="91" stroke="#000000" stroke-dasharray="none" stroke-width="1" width="102" x="290.0" y="39.0"></rect>
  <rect fill="#000000" height="122" stroke="#000000" stroke-dasharray="none" stroke-width="1" width="141" x="121.0" y="37.0"></rect>
</svg>