<?xml version="1.0" standalone="no" ?>
<!DOCTYPE svg PUBLIC "-//W3C//DTD SVG 1.1//EN" "http://www.w3.org/Graphics/SVG/1.1/DTD/svg11.dtd">

<svg contentScriptType="text/ecmascript" contentStyleType="text/css" height="269.0px" preserveAspectRatio="xMidYMid meet" version="1.0" width="541.0px" xmlns="http://www.w3.org/2000/svg" xmlns:xlink="http://www.w3.org/1999/xlink" zoomAndPan="magnify">
  <image height="212" preserveAspectRatio="xMidYMid meet" width="425" x="0" xlink:actuate="onLoad" xlink:href="./Colour-Picker.png" xlink:show="embed" xlink:type="resource" xmlns:xlink="http://www.w3.org/1999/xlink" y="0"></image>
  <rect fill="none" height="199" stroke="#fbda88" stroke-dasharray="12,12" stroke-width="2" width="29" x="313" y="6"></rect>
  <line fill="#ffffff" stroke="#fbda88" stroke-dasharray="12,12" stroke-width="2" x1="328" x2="364" y1="207" y2="226"></line>
  <text font-family="Lucida Grande" font-size="11" x="362" y="236">ColourStrip</text>
  <rect fill="none" height="124" stroke="#acfffc" stroke-dasharray="12,12" stroke-width="2" width="84" x="347" y="5"></rect>
  <line fill="none" stroke="#acfffc" stroke-dasharray="12,12" stroke-width="2" x1="428" x2="444" y1="127" y2="71"></line>
  <text font-family="Lucida Grande" font-size="11" x="443.0" y="64.0">RGBComposite</text>
  <line fill="#ffffff" stroke="#166900" stroke-dasharray="12,12" stroke-width="2" x1="144" x2="255" y1="192" y2="240"></line>
  <text font-family="Lucida Grande" font-size="11" x="234" y="249">colourSelector</text>
</svg>