<?xml version="1.0" encoding="UTF-8"?>
<!DOCTYPE svg PUBLIC "-//W3C//DTD SVG 1.1//EN"
                     "http://www.w3.org/Graphics/SVG/1.1/DTD/svg11.dtd">
<svg height="125" width="460" xmlns="http://www.w3.org/2000/svg" xmlns:xlink="http://www.w3.org/1999/xlink">
    <defs>
        <symbol id="DocfactoLogo">
            <path d="M-0 9.76594l0 -0.180616 0.207182 0c0.180482,0 0.320223,-0.0300877 0.415924,-0.0920016 0.0973505,-0.0601755 0.167956,-0.142148 0.213467,-0.247522 0.0282602,-0.0685555 0.0423903,-0.274266 0.0423903,-0.617088l0 -4.37008c0,-0.339479 -0.0172503,-0.551876 -0.0517955,-0.637191 -0.0329405,-0.0852709 -0.100426,-0.158863 -0.204062,-0.222426 -0.101986,-0.0635631 -0.241727,-0.0953447 -0.415924,-0.0953447l-0.207182 0 0 -0.182265 2.79076 0c0.745552,0 1.34517,0.108672 1.7988,0.324457 0.55406,0.264237 0.976269,0.663936 1.26195,1.1991 0.287238,0.536854 0.430054,1.14226 0.430054,1.81792 0,0.468299 -0.0706059,0.898085 -0.211862,1.29114 -0.141301,0.394662 -0.323343,0.719119 -0.54626,0.975021 -0.224432,0.257551 -0.481849,0.463262 -0.775327,0.618782 -0.293567,0.153871 -0.651411,0.274266 -1.07366,0.359582 -0.186767,0.0384677 -0.481894,0.0585262 -0.883688,0.0585262l-2.79076 0zm2.37796 -6.26658l0 5.18454c0,0.274266 0.01257,0.44151 0.0361053,0.503379 0.0250954,0.0618693 0.0659256,0.110366 0.124006,0.142148 0.0831759,0.0501908 0.202502,0.0735924 0.359448,0.0735924 0.51167,0 0.902543,-0.185652 1.17249,-0.558562 0.367293,-0.503424 0.550895,-1.28276 0.550895,-2.34141 0,-0.852932 -0.125522,-1.53363 -0.376654,-2.04369 -0.199337,-0.39805 -0.455194,-0.668973 -0.767572,-0.812815 -0.221312,-0.102031 -0.587001,-0.150528 -1.09871,-0.147185zm6.07835 1.54869c0.373534,0 0.722016,0.101986 1.04375,0.307697 0.321783,0.205711 0.56663,0.498387 0.733026,0.878027 0.167956,0.377991 0.251132,0.792756 0.251132,1.24429 0,0.650564 -0.153826,1.1941 -0.464644,1.63062 -0.373534,0.530124 -0.889928,0.794405 -1.54918,0.794405 -0.646686,0 -1.14579,-0.242529 -1.49427,-0.72585 -0.349998,-0.48332 -0.52424,-1.04358 -0.52424,-1.67912 0,-0.65725 0.178922,-1.22923 0.535205,-1.71759 0.357933,-0.488357 0.847627,-0.732491 1.46922,-0.732491zm0.0188104 0.347859c-0.156947,0 -0.290358,0.0618693 -0.401838,0.188951 -0.113041,0.125432 -0.186767,0.372954 -0.221312,0.744259 -0.0360607,0.37126 -0.0533556,0.886362 -0.0533556,1.54531 0,0.349553 0.0219752,0.675659 0.0643209,0.980058 0.0345898,0.232456 0.106756,0.408079 0.216632,0.528474 0.109876,0.122089 0.235442,0.182309 0.376743,0.182309 0.138092,0 0.252648,-0.0418108 0.345273,-0.122089 0.119326,-0.11206 0.199337,-0.267625 0.238607,-0.466605 0.0612007,-0.309436 0.0925811,-0.936553 0.0925811,-1.88149 0,-0.555264 -0.0298203,-0.936553 -0.0878562,-1.14396 -0.058125,-0.20736 -0.144421,-0.357888 -0.257462,-0.453233 -0.0800111,-0.0685555 -0.183647,-0.101986 -0.312333,-0.101986zm5.60581 3.1893l0.141301 0.117052c-0.202502,0.404736 -0.453634,0.707441 -0.756562,0.904816 -0.301368,0.197331 -0.62315,0.296019 -0.962183,0.296019 -0.574475,0 -1.03279,-0.230806 -1.37494,-0.690725 -0.343758,-0.459919 -0.514879,-1.01518 -0.514879,-1.66071 0,-0.623819 0.155431,-1.1724 0.467764,-1.64734 0.378259,-0.57033 0.897818,-0.856275 1.56019,-0.856275 0.444229,0 0.797392,0.118702 1.05949,0.357888 0.262098,0.237493 0.392433,0.503379 0.392433,0.797748 0,0.185608 -0.0518401,0.334486 -0.158551,0.446547 -0.105196,0.110366 -0.244847,0.165549 -0.415969,0.165549 -0.180526,0 -0.329628,-0.0635631 -0.448864,-0.190645 -0.117721,-0.127126 -0.189932,-0.354545 -0.218236,-0.680696 -0.0172057,-0.205711 -0.0627608,-0.349508 -0.133411,-0.43148 -0.0706059,-0.0819278 -0.152222,-0.122089 -0.247968,-0.122089 -0.147541,0 -0.273107,0.0836216 -0.376743,0.249216 -0.160067,0.252514 -0.238562,0.637191 -0.238562,1.15729 0,0.429831 0.0643655,0.842902 0.193052,1.23591 0.128731,0.394707 0.304532,0.687382 0.528965,0.879721 0.167956,0.140499 0.367293,0.210703 0.59645,0.210703 0.150706,0 0.293523,-0.0367739 0.428538,-0.112016 0.134971,-0.0752862 0.293478,-0.217434 0.478685,-0.426488z"/>
            <path d="M21.526 4.70109l-1.05762 3.91943 -0.118523 0.526959c-0.0111436,0.0492993 -0.0166708,0.0907535 -0.0166708,0.126279 0,0.0612007 0.0184984,0.116428 0.0537122,0.16185 0.029642,0.0355258 0.0648112,0.0513052 0.109296,0.0513052 0.0462682,0 0.107424,-0.0295974 0.183335,-0.0907981 0.142638,-0.112461 0.329717,-0.343401 0.564936,-0.694648l0.185207 0.138136c-0.250063,0.400635 -0.50748,0.706505 -0.770513,0.917698 -0.264861,0.209188 -0.509352,0.313759 -0.733472,0.313759 -0.155609,0 -0.272261,-0.0414542 -0.350088,-0.124318 -0.0777378,-0.0829084 -0.116651,-0.203259 -0.116651,-0.361142 0,-0.18748 0.040741,-0.436161 0.120396,-0.745998l0.112996 -0.432194c-0.474183,0.659122 -0.909452,1.11895 -1.30768,1.38145 -0.285232,0.18748 -0.566808,0.282201 -0.840896,0.282201 -0.264906,0 -0.492681,-0.116428 -0.683504,-0.349285 -0.192606,-0.232901 -0.287059,-0.554595 -0.287059,-0.96312 0,-0.611784 0.172236,-1.25909 0.516751,-1.93997 0.346388,-0.678868 0.785357,-1.22357 1.31695,-1.63209 0.414854,-0.323655 0.807555,-0.485505 1.17801,-0.485505 0.220376,0 0.403755,0.0612007 0.550048,0.183557 0.146338,0.124318 0.257462,0.327622 0.333417,0.613745l0.19635 -0.659122 0.861267 -0.138181zm-1.93186 0.299986c-0.23152,0 -0.47601,0.116428 -0.737172,0.347368 -0.368586,0.327577 -0.696431,0.813082 -0.985407,1.45642 -0.287059,0.643387 -0.43157,1.22557 -0.43157,1.7466 0,0.262454 0.0630282,0.469681 0.185251,0.621635 0.122268,0.151954 0.264861,0.226973 0.42417,0.226973 0.392656,0 0.822398,-0.309837 1.28544,-0.929555 0.618604,-0.824939 0.92795,-1.67154 0.92795,-2.53793 0,-0.327622 -0.059284,-0.564446 -0.179679,-0.712433 -0.118523,-0.14607 -0.281532,-0.219083 -0.488981,-0.219083zm5.97654 3.67075c-0.37603,0.481537 -0.755715,0.836796 -1.1391,1.06176 -0.383429,0.225012 -0.789056,0.337473 -1.2151,0.337473 -0.513052,0 -0.914935,-0.153915 -1.20204,-0.461791 -0.287104,-0.307876 -0.43157,-0.722328 -0.43157,-1.24331 0,-0.590076 0.155565,-1.1703 0.464911,-1.74068 0.309302,-0.57033 0.724201,-1.03413 1.24652,-1.38934 0.524195,-0.357219 1.03537,-0.534848 1.53915,-0.534848 0.394528,0 0.689031,0.0868755 0.88351,0.262499 0.19635,0.175623 0.294503,0.390739 0.294503,0.645348 0,0.238785 -0.0685109,0.442045 -0.207449,0.611784 -0.0999804,0.132208 -0.225948,0.197376 -0.374113,0.197376 -0.111169,0 -0.205622,-0.0394929 -0.279704,-0.116473 -0.0741273,-0.0769355 -0.111124,-0.173662 -0.111124,-0.288129 0,-0.0730129 0.0147987,-0.142103 0.040741,-0.203259 0.0277699,-0.0612007 0.0833542,-0.136175 0.168536,-0.223006 0.0852263,-0.086831 0.137066,-0.148032 0.155609,-0.18748 0.0166708,-0.0375317 0.0259423,-0.0789413 0.0259423,-0.120396 0,-0.0809026 -0.0333417,-0.149993 -0.101897,-0.203259 -0.105597,-0.07698 -0.253762,-0.116473 -0.446368,-0.116473 -0.353787,0 -0.705702,0.134214 -1.05209,0.400635 -0.348171,0.26446 -0.644546,0.643387 -0.890909,1.13281 -0.296331,0.594043 -0.444496,1.18608 -0.444496,1.78012 0,0.392745 0.105552,0.704543 0.314874,0.933478 0.209277,0.230896 0.496381,0.345363 0.857567,0.345363 0.277788,0 0.553793,-0.0749742 0.827925,-0.223006 0.272305,-0.148032 0.579735,-0.418376 0.918679,-0.807198l0.157481 0.149993zm2.93888 -5.40545l-0.424126 1.5729 0.851995 0 -0.0926256 0.365109 -0.846424 0 -0.933522 3.41021c-0.100025,0.367115 -0.151865,0.603939 -0.151865,0.710472 0,0.0671291 0.0147987,0.116473 0.0444407,0.151999 0.0277699,0.03352 0.0629391,0.0513052 0.101853,0.0513052 0.0907981,0 0.211194,-0.0671291 0.359359,-0.203304 0.0870538,-0.0769355 0.27966,-0.313759 0.579735,-0.710472l0.179635 0.144065c-0.333372,0.517063 -0.648246,0.882172 -0.944621,1.09337 -0.201878,0.146026 -0.407455,0.219039 -0.613077,0.219039 -0.159309,0 -0.288931,-0.0532664 -0.390784,-0.157883 -0.101897,-0.106577 -0.151865,-0.242752 -0.151865,-0.408525 0,-0.207182 0.0573673,-0.524953 0.174063,-0.953179l0.905752 -3.34709 -0.818698 0 0.0537122 -0.226973c0.398228,-0.114467 0.729817,-0.288129 0.992806,-0.517063 0.264861,-0.228934 0.559364,-0.627608 0.885337,-1.19397l0.238919 0zm4.74851 3.24444c0,0.578264 -0.142594,1.1506 -0.429653,1.71701 -0.288976,0.566363 -0.689076,1.01438 -1.20213,1.34592 -0.514879,0.331545 -1.01313,0.497317 -1.49841,0.497317 -0.496425,0 -0.90018,-0.167734 -1.21318,-0.505206 -0.313046,-0.337473 -0.468655,-0.773634 -0.468655,-1.31044 0,-0.566363 0.15191,-1.13478 0.457512,-1.70511 0.305647,-0.57033 0.714974,-1.02031 1.22615,-1.35185 0.513052,-0.331545 1.00765,-0.497361 1.48549,-0.497361 0.477882,0 0.870538,0.167778 1.17988,0.50329 0.309302,0.333506 0.462995,0.769667 0.462995,1.30643zm-0.900136 -0.40059c0,-0.357219 -0.081482,-0.63153 -0.246363,-0.822978 -0.164836,-0.191447 -0.377857,-0.286168 -0.637147,-0.286168 -0.533422,0 -1.0224,0.406563 -1.46877,1.21768 -0.446368,0.811121 -0.670533,1.61631 -0.670533,2.41954 0,0.365109 0.0870538,0.64731 0.261162,0.846647 0.174108,0.199292 0.392656,0.29798 0.65569,0.29798 0.511179,0 0.989062,-0.404557 1.43543,-1.21176 0.446413,-0.807154 0.670533,-1.62813 0.670533,-2.46095z"/>
            <path d="M13.9873 15.6134c-0.17335,0.206469 -0.268071,0.381958 -0.348527,0.68921 0.0914221,0.120039 0.0563866,0.207449 -0.0454659,0.271993 0.0939183,0.181596 0.156055,0.411154 0.0975734,0.703518 -0.178743,0.832784 -0.825652,1.26132 -1.18876,2.33307 0.191982,-1.12096 -0.16497,-1.83794 0.0735032,-2.65356 0.087455,-0.283984 0.249438,-0.449176 0.41637,-0.555798 -0.0575902,-0.110366 -0.0466248,-0.204641 0.0890151,-0.259557 0.0754199,-0.308589 0.0764006,-0.511046 0.0239365,-0.78237 1.00391,-3.74537 1.89513,-7.5337 2.80529,-11.3063l-1.09123 0 0.0877225 -0.439994c0.346611,0 0.588427,-0.0250954 0.727499,-0.0775595 0.136933,-0.0501462 0.263167,-0.148165 0.378704,-0.294057 0.115537,-0.143619 0.265307,-0.414943 0.449355,-0.811611 0.246051,-0.533511 0.481448,-0.948455 0.708243,-1.24256 0.308098,-0.394394 0.633358,-0.693043 0.97355,-0.891399 0.340192,-0.198356 0.661128,-0.296375 0.962852,-0.296375 0.316657,0 0.573405,0.0866081 0.763872,0.257596 0.192562,0.171032 0.288842,0.357977 0.288842,0.556333 0,0.157259 -0.0470706,0.287238 -0.143351,0.394394 -0.0962808,0.107157 -0.220376,0.16185 -0.370146,0.16185 -0.130514,0 -0.235353,-0.0410085 -0.316701,-0.120841 -0.0813037,-0.0797882 -0.121956,-0.175534 -0.121956,-0.287238 0,-0.070695 0.0278144,-0.159621 0.0813037,-0.26446 0.0535339,-0.104884 0.0813037,-0.175579 0.0813037,-0.209767 0,-0.0638306 -0.0192116,-0.10943 -0.0556289,-0.141345 -0.0555843,-0.0433263 -0.134793,-0.0661039 -0.239632,-0.0661039 -0.263167,0 -0.498565,0.0888814 -0.708243,0.266733 -0.280284,0.237091 -0.530614,0.606435 -0.751034,1.11026 -0.113397,0.262187 -0.320936,0.914221 -0.620521,1.95615l0.920061 0 -0.111213 0.439994 -0.915826 0c-0.912929,3.86995 -1.97968,7.69426 -2.90077,11.5598zm-0.967577 2.33151l0.197242 -0.779205c0.0129266,-0.051216 -0.0157348,-0.104349 -0.063786,-0.118211l0 0c-0.0480067,-0.0137735 -0.0979746,0.0168046 -0.110946,0.067976l-0.197242 0.779205c-0.0129266,0.051216 0.0158239,0.104349 0.0638306,0.118167l0 0c0.0480512,0.0138181 0.09793,-0.01676 0.110901,-0.0679314z"/>
        </symbol>
    </defs>
    <a xlink:href="http://www.docfacto.com">
        <use xlink:href="#DocfactoLogo"/>
    </a>
    <title>links</title>
    <g id="Complex-links">
        <rect height="125" style="fill:none; stroke-dasharray: 9, 5; stroke: black; stroke-width: 2;" width="460"/>
        <text style="font-style:italic;" x="60" y="15">links</text>
        <text style="text-anchor:start; font-size: 10; stroke:black; text-anchor:end;" x="40" y="15"/>
        <g id="Complex-path" transform="translate(20,40)">
            <rect height="80" style="fill:none; stroke-dasharray: 9, 5; stroke: black; stroke-width: 2;" width="420"/>
            <text style="font-style:italic;" x="60" y="15">path</text>
            <text style="text-anchor:start; font-size: 10; stroke:black; text-anchor:end;" x="40" y="15">[0 .. ∞]</text>
            <g id="Attribute-name">
                <rect height="20" ry="10" style="fill:none; stroke: black; stroke-width: 2;" width="400" x="10" y="20"/>
                <text style="font-style:italic; fill:red;" x="20" y="35">
                    <tspan>name</tspan>
                    <title>Partial path.</title>
                </text>
                <text style="text-anchor:end;" x="395" y="35">string</text>
            </g>
            <g id="Attribute-description">
                <rect height="20" ry="10" style="fill:none; stroke: black; stroke-width: 2;" width="400" x="10" y="40"/>
                <text style="font-style:italic;" x="20" y="55">
                    <tspan>description</tspan>
                    <title>Optional description for the link</title>
                </text>
                <text style="text-anchor:end;" x="395" y="55">string</text>
            </g>
        </g>
    </g>
</svg>
<!-- Created by Docfacto [2013-04-18 11:23:34] -->
