<?xml version="1.0" standalone="no" ?>

<svg contentScriptType="text/ecmascript" contentStyleType="text/css" height="392.0px" preserveAspectRatio="xMidYMid meet" version="1.0" width="713.0px" xmlns="http://www.w3.org/2000/svg" xmlns:xlink="http://www.w3.org/1999/xlink" zoomAndPan="magnify">
  <rect fill="none" height="56" stroke="#000000" stroke-dasharray="none" stroke-width="1" width="261" x="10.0" y="161.0"></rect>
  <text font-family="Lucida Grande" font-size="11" x="64.0" y="190.0">Release Notice Generator</text>
  <path class="cloud" d="M55.7756 26.1645 C54.1782 17.7357 46.7787 11.4762 38.0196 11.4762 C32.637 11.4762 27.6478 13.8203 24.2371 17.8535 C18.5401 16.3343 12.5697 19.6602 10.9051 25.3342 C4.9865 27.0727 0.76 32.5505 0.76 38.9008 C0.76 46.6994 7.1044 53.0437 15.0564 53.0437 L49.617 53.0437 C57.4153 53.0437 63.76 46.6994 63.76 38.9008 C63.7598 33.3931 60.6222 28.496 55.7756 26.1645 ZM49.617 46.9092 L15.0562 46.9092 C10.4869 46.9092 6.8942 43.3166 6.8942 38.9006 C6.8942 33.6745 11.1345 29.6871 16.4309 30.6475 C14.6618 24.5751 23.1988 21.15 26.3442 25.6866 C27.1351 23.4503 30.3044 17.6104 38.0196 17.6104 C43.8514 17.6104 49.8836 21.61 50.0834 30.6432 C53.9731 30.6582 57.6256 33.4699 57.6256 38.9006 C57.6255 43.3168 54.033 46.9092 49.617 46.9092 Z" fill="#000000" stroke="#000000" stroke-dasharray="none" stroke-width="1" transform="translate(290.38385 -10.095871)scale(1.9393008 1.8460132)"></path>
  <rect fill="none" height="104" stroke="#000000" stroke-dasharray="none" stroke-width="1" width="178" x="524.0" y="81.0"></rect>
  <text font-family="Lucida Grande" font-size="11" x="547.0" y="138.0">Hosted Fogbugz Server</text>
  <text font-family="Lucida Grande" font-size="11" x="169.0" y="101.0">HTTP Requests</text>
  <text font-family="Lucida Grande" font-size="11" x="214.0" y="351.0">ReleaseNotice.html</text>
  <line fill="none" marker-end="url(#arrow.head)" stroke="#000000" stroke-dasharray="none" stroke-width="1" x1="138.0" x2="137.0" y1="227.0" y2="292.0"></line>
  <line fill="#ffffff" marker-end="url(#arrow.head)" marker-start="url(#arrow.tail)" stroke="#000000" stroke-dasharray="none" stroke-width="1" x1="163.0" x2="289.0" y1="145.0" y2="90.0"></line>
  <line fill="#ffffff" marker-end="url(#arrow.head)" marker-start="url(#arrow.tail)" stroke="#000000" stroke-dasharray="none" stroke-width="1" x1="427.0" x2="514.0" y1="74.0" y2="112.0"></line>
  <marker id="arrow.head" markerUnits="strokeWidth" orient="auto" overflow="visible" preserveAspectRatio="xMidYMid meet" refX="0" refY="0">
    <path d="M 0,0 L 5,-5 L -10,0 L 5,5 L 0,0 z" fill="black" transform="scale(0.7) rotate(180)"></path>
  </marker>
  <marker id="arrow.tail" markerUnits="strokeWidth" orient="auto" overflow="visible" preserveAspectRatio="xMidYMid meet" refX="0" refY="0">
    <path d="M 0,0 L 5,-5 L -10,0 L 5,5 L 0,0 z" fill="black" transform="scale(0.7) translate(5,0)"></path>
  </marker>
  <path class="file" d="M44.918 49.6254 L19.2253 49.6254 L19.2253 45.038 L44.918 45.038 L44.918 49.6254 ZM44.9131 41.1516 L19.2253 41.1516 L19.2253 36.5642 L44.9131 36.5642 L44.9131 41.1516 ZM44.9131 32.6903 L19.2253 32.6903 L19.2253 28.1029 L44.9131 28.1029 L44.9131 32.6903 ZM38.5401 6.7621 L38.5401 19.8744 L51.6698 19.8744 L51.6698 57.5291 L12.6213 57.5291 L12.6213 6.7621 L38.5401 6.7621 M42.3629 0.6456 L6.5048 0.6456 L6.5048 63.6456 L57.7863 63.6456 L57.7863 16.0516 L42.3629 0.6456 Z" fill="#ffffff" stroke="#000000" stroke-dasharray="none" stroke-width="1" transform="translate(106.69052 307.7863)scale(1.3863038 1.1526105)"></path>
</svg>